arquitectura/arqui.vcd
$date
	Wed Jul 10 13:43:29 2019
$end
$version
	Icarus Verilog
$end
$timescale
	1ps
$end
$scope module BUF $end
$var wire 1 ! A $end
$var wire 1 " Y $end
$upscope $end
$scope module DFF $end
$var wire 1 # C $end
$var wire 1 $ D $end
$var reg 1 % Q $end
$upscope $end
$scope module DFFSR $end
$var wire 1 & C $end
$var wire 1 ' D $end
$var wire 1 ( R $end
$var wire 1 ) S $end
$var reg 1 * Q $end
$upscope $end
$scope module NAND $end
$var wire 1 + A $end
$var wire 1 , B $end
$var wire 1 - Y $end
$upscope $end
$scope module NOR $end
$var wire 1 . A $end
$var wire 1 / B $end
$var wire 1 0 Y $end
$upscope $end
$scope module NOT $end
$var wire 1 1 A $end
$var wire 1 2 Y $end
$upscope $end
$scope module bancoEV $end
$var wire 1 3 reset_L $end
$var wire 1 4 push_main $end
$var wire 1 5 pop_d1 $end
$var wire 1 6 pop_d0 $end
$var wire 1 7 init $end
$var wire 1 8 idle_out_cond $end
$var wire 1 9 fifo_pause_main $end
$var wire 1 : fifo_empty_d1 $end
$var wire 1 ; fifo_empty_d0 $end
$var wire 5 < error_out_cond [4:0] $end
$var wire 6 = data_out_1_cond [5:0] $end
$var wire 6 > data_out_0_cond [5:0] $end
$var wire 6 ? data_in [5:0] $end
$var wire 1 @ clk $end
$var wire 4 A afVC_i [3:0] $end
$var wire 2 B afMF_i [1:0] $end
$var wire 2 C afDF_i [1:0] $end
$var wire 4 D aeVC_i [3:0] $end
$var wire 2 E aeMF_i [1:0] $end
$var wire 2 F aeDF_i [1:0] $end
$var wire 1 G active_out_cond $end
$scope module cond $end
$var wire 1 H pop_delay_vc0 $end
$var wire 1 I pop_delay_vc1 $end
$var wire 1 J valid_out_main $end
$var wire 1 3 reset_L $end
$var wire 1 K push_vc1 $end
$var wire 1 L push_vc0 $end
$var wire 1 4 push_main $end
$var wire 1 M push_d1 $end
$var wire 1 N push_d0 $end
$var wire 1 O pop_vc1 $end
$var wire 1 P pop_vc0 $end
$var wire 1 Q pop_main $end
$var wire 1 5 pop_d1 $end
$var wire 1 6 pop_d0 $end
$var wire 1 R pop_b1 $end
$var wire 1 S pop_b0 $end
$var wire 1 T pop_b $end
$var wire 1 7 init $end
$var wire 1 8 idle_out_cond $end
$var wire 1 U fifo_pause_vc1 $end
$var wire 1 V fifo_pause_vc0 $end
$var wire 1 9 fifo_pause_main $end
$var wire 1 W fifo_pause_d1 $end
$var wire 1 X fifo_pause_d0 $end
$var wire 1 Y fifo_error_vc1 $end
$var wire 1 Z fifo_error_vc0 $end
$var wire 1 [ fifo_error_main $end
$var wire 1 \ fifo_error_d1 $end
$var wire 1 ] fifo_error_d0 $end
$var wire 1 ^ fifo_empty_vc1 $end
$var wire 1 _ fifo_empty_vc0 $end
$var wire 1 ` fifo_empty_main $end
$var wire 1 : fifo_empty_d1 $end
$var wire 1 ; fifo_empty_d0 $end
$var wire 5 a error_out_cond [4:0] $end
$var wire 6 b data_vc1 [5:0] $end
$var wire 6 c data_vc0 [5:0] $end
$var wire 6 d data_out_1_cond [5:0] $end
$var wire 6 e data_out_0_cond [5:0] $end
$var wire 6 f data_mux_1 [5:0] $end
$var wire 6 g data_mux_0 [5:0] $end
$var wire 6 h data_in [5:0] $end
$var wire 6 i data_demux_vc [5:0] $end
$var wire 6 j data_demux_d [5:0] $end
$var wire 6 k data_d1 [5:0] $end
$var wire 6 l data_d0 [5:0] $end
$var wire 1 @ clk $end
$var wire 4 m afVC_o [3:0] $end
$var wire 4 n afVC_i [3:0] $end
$var wire 2 o afMF_o [1:0] $end
$var wire 2 p afMF_i [1:0] $end
$var wire 2 q afD_o [1:0] $end
$var wire 2 r afDF_i [1:0] $end
$var wire 4 s aeVC_o [3:0] $end
$var wire 4 t aeVC_i [3:0] $end
$var wire 2 u aeMF_o [1:0] $end
$var wire 2 v aeMF_i [1:0] $end
$var wire 2 w aeD_o [1:0] $end
$var wire 2 x aeDF_i [1:0] $end
$var wire 1 G active_out_cond $end
$var reg 5 y FIFO_empties [4:0] $end
$var reg 5 z FIFO_errors [4:0] $end
$scope module d0 $end
$var wire 1 3 reset_L $end
$var wire 1 N push_d0 $end
$var wire 1 6 pop_d0 $end
$var wire 6 { data_out [5:0] $end
$var wire 6 | data_d0 [5:0] $end
$var wire 1 @ clk $end
$var wire 2 } afD_o [1:0] $end
$var wire 2 ~ aeD_o [1:0] $end
$var reg 1 !" almost_empty $end
$var reg 1 "" almost_full $end
$var reg 6 #" data_count [5:0] $end
$var reg 6 $" data_out_0_cond [5:0] $end
$var reg 1 %" datamod $end
$var reg 1 ; fifo_empty_d0 $end
$var reg 1 ] fifo_error_d0 $end
$var reg 1 &" fifo_full $end
$var reg 1 X fifo_pause_d0 $end
$var reg 2 '" rd_ptr [1:0] $end
$var reg 2 (" wr_ptr [1:0] $end
$scope module mem_d0 $end
$var wire 2 )" rd_ptr [1:0] $end
$var wire 2 *" wr_ptr [1:0] $end
$var wire 1 N write $end
$var wire 1 3 reset_L $end
$var wire 1 6 read $end
$var wire 6 +" data_in [5:0] $end
$var wire 1 @ clk $end
$var reg 6 ," data_out [5:0] $end
$upscope $end
$upscope $end
$scope module d1 $end
$var wire 1 3 reset_L $end
$var wire 1 M push_d1 $end
$var wire 1 5 pop_d1 $end
$var wire 6 -" data_out [5:0] $end
$var wire 6 ." data_d1 [5:0] $end
$var wire 1 @ clk $end
$var wire 2 /" afD_o [1:0] $end
$var wire 2 0" aeD_o [1:0] $end
$var reg 1 1" almost_empty $end
$var reg 1 2" almost_full $end
$var reg 6 3" data_count [5:0] $end
$var reg 6 4" data_out_1_cond [5:0] $end
$var reg 1 5" datamod $end
$var reg 1 : fifo_empty_d1 $end
$var reg 1 \ fifo_error_d1 $end
$var reg 1 6" fifo_full $end
$var reg 1 W fifo_pause_d1 $end
$var reg 2 7" rd_ptr [1:0] $end
$var reg 2 8" wr_ptr [1:0] $end
$scope module mem_d1 $end
$var wire 2 9" rd_ptr [1:0] $end
$var wire 2 :" wr_ptr [1:0] $end
$var wire 1 M write $end
$var wire 1 3 reset_L $end
$var wire 1 5 read $end
$var wire 6 ;" data_in [5:0] $end
$var wire 1 @ clk $end
$var reg 6 <" data_out [5:0] $end
$upscope $end
$upscope $end
$scope module demux_d $end
$var wire 6 =" data_demux_d [5:0] $end
$var wire 1 @ clk $end
$var reg 6 >" data_d0 [5:0] $end
$var reg 6 ?" data_d1 [5:0] $end
$var reg 1 N push_d0 $end
$var reg 1 M push_d1 $end
$var reg 1 @" selector $end
$upscope $end
$scope module demux_main $end
$var wire 1 J valid_out_main $end
$var wire 6 A" data_demux_vc [5:0] $end
$var wire 1 @ clk $end
$var reg 6 B" data_vc0 [5:0] $end
$var reg 6 C" data_vc1 [5:0] $end
$var reg 1 L push_vc0 $end
$var reg 1 K push_vc1 $end
$var reg 1 D" selector $end
$upscope $end
$scope module fsm0 $end
$var wire 5 E" FIFO_empties [4:0] $end
$var wire 5 F" FIFO_errors [4:0] $end
$var wire 1 3 reset_L $end
$var wire 1 7 init $end
$var wire 1 @ clk $end
$var wire 4 G" afVC_i [3:0] $end
$var wire 2 H" afMF_i [1:0] $end
$var wire 2 I" afDF_i [1:0] $end
$var wire 4 J" aeVC_i [3:0] $end
$var wire 2 K" aeMF_i [1:0] $end
$var wire 2 L" aeDF_i [1:0] $end
$var reg 1 G active_out_cond $end
$var reg 2 M" aeD_o [1:0] $end
$var reg 2 N" aeMF_o [1:0] $end
$var reg 4 O" aeVC_o [3:0] $end
$var reg 2 P" afD_o [1:0] $end
$var reg 2 Q" afMF_o [1:0] $end
$var reg 4 R" afVC_o [3:0] $end
$var reg 5 S" error_ant [4:0] $end
$var reg 5 T" error_out_cond [4:0] $end
$var reg 5 U" estado [4:0] $end
$var reg 5 V" estado_proximo [4:0] $end
$var reg 1 8 idle_out_cond $end
$upscope $end
$scope module in_flow $end
$var wire 1 3 reset_L $end
$var wire 1 U fifo_pause_vc1 $end
$var wire 1 V fifo_pause_vc0 $end
$var wire 1 [ fifo_error_main $end
$var wire 1 ` fifo_empty_main $end
$var reg 1 T pop_b $end
$var reg 1 Q pop_main $end
$var reg 1 J valid_out_main $end
$upscope $end
$scope module main $end
$var wire 2 W" aeMF_o [1:0] $end
$var wire 2 X" afMF_o [1:0] $end
$var wire 1 Q pop_main $end
$var wire 1 3 reset_L $end
$var wire 1 4 push_main $end
$var wire 6 Y" data_in [5:0] $end
$var wire 6 Z" data_demux_vc [5:0] $end
$var wire 1 @ clk $end
$var reg 1 [" almost_empty $end
$var reg 1 \" almost_full $end
$var reg 6 ]" data_count [5:0] $end
$var reg 1 ^" datamod $end
$var reg 1 ` fifo_empty_main $end
$var reg 1 [ fifo_error_main $end
$var reg 1 _" fifo_full $end
$var reg 1 9 fifo_pause_main $end
$var reg 2 `" rd_ptr [1:0] $end
$var reg 2 a" wr_ptr [1:0] $end
$scope module main_mem $end
$var wire 2 b" rd_ptr [1:0] $end
$var wire 1 Q read $end
$var wire 2 c" wr_ptr [1:0] $end
$var wire 1 4 write $end
$var wire 1 3 reset_L $end
$var wire 6 d" data_in [5:0] $end
$var wire 1 @ clk $end
$var reg 6 e" data_out [5:0] $end
$upscope $end
$upscope $end
$scope module mux0 $end
$var wire 1 H pop_delay_vc0 $end
$var wire 1 I pop_delay_vc1 $end
$var wire 6 f" data_mux_1 [5:0] $end
$var wire 6 g" data_mux_0 [5:0] $end
$var wire 1 @ clk $end
$var reg 6 h" data_demux_d [5:0] $end
$var reg 6 i" reg_VC0 [5:0] $end
$var reg 6 j" reg_VC1 [5:0] $end
$upscope $end
$scope module of $end
$var wire 1 X fifo_pause_d0 $end
$var wire 1 W fifo_pause_d1 $end
$var wire 1 ^ fifo_empty_vc1 $end
$var wire 1 _ fifo_empty_vc0 $end
$var reg 1 S pop_b0 $end
$var reg 1 R pop_b1 $end
$var reg 1 P pop_vc0 $end
$var reg 1 O pop_vc1 $end
$upscope $end
$scope module vc0 $end
$var wire 4 k" aeVC_o [3:0] $end
$var wire 4 l" afVC_o [3:0] $end
$var wire 6 m" data_vc0 [5:0] $end
$var wire 1 P pop_vc0 $end
$var wire 1 L push_vc0 $end
$var wire 1 3 reset_L $end
$var wire 6 n" data_mux_0 [5:0] $end
$var wire 1 @ clk $end
$var reg 1 o" almost_empty $end
$var reg 1 p" almost_full $end
$var reg 6 q" data_count [5:0] $end
$var reg 1 r" datamod $end
$var reg 1 _ fifo_empty_vc0 $end
$var reg 1 Z fifo_error_vc0 $end
$var reg 1 s" fifo_full $end
$var reg 1 V fifo_pause_vc0 $end
$var reg 4 t" rd_ptr [3:0] $end
$var reg 4 u" wr_ptr [3:0] $end
$scope module mem_vc0 $end
$var wire 6 v" data_in [5:0] $end
$var wire 4 w" rd_ptr [3:0] $end
$var wire 1 P read $end
$var wire 4 x" wr_ptr [3:0] $end
$var wire 1 L write $end
$var wire 1 3 reset_L $end
$var wire 1 @ clk $end
$var reg 6 y" data_out [5:0] $end
$upscope $end
$upscope $end
$scope module vc1 $end
$var wire 4 z" aeVC_o [3:0] $end
$var wire 4 {" afVC_o [3:0] $end
$var wire 6 |" data_vc1 [5:0] $end
$var wire 1 O pop_vc1 $end
$var wire 1 K push_vc1 $end
$var wire 1 3 reset_L $end
$var wire 6 }" data_mux_1 [5:0] $end
$var wire 1 @ clk $end
$var reg 1 ~" almost_empty $end
$var reg 1 !# almost_full $end
$var reg 6 "# data_count [5:0] $end
$var reg 1 ## datamod $end
$var reg 1 ^ fifo_empty_vc1 $end
$var reg 1 Y fifo_error_vc1 $end
$var reg 1 $# fifo_full $end
$var reg 1 U fifo_pause_vc1 $end
$var reg 4 %# rd_ptr [3:0] $end
$var reg 4 &# wr_ptr [3:0] $end
$scope module mem_vc1 $end
$var wire 6 '# data_in [5:0] $end
$var wire 4 (# rd_ptr [3:0] $end
$var wire 1 O read $end
$var wire 4 )# wr_ptr [3:0] $end
$var wire 1 K write $end
$var wire 1 3 reset_L $end
$var wire 1 @ clk $end
$var reg 6 *# data_out [5:0] $end
$upscope $end
$upscope $end
$upscope $end
$scope module probador $end
$var wire 1 G active_out_cond $end
$var wire 6 +# data_out_0_cond [5:0] $end
$var wire 6 ,# data_out_1_cond [5:0] $end
$var wire 5 -# error_out_cond [4:0] $end
$var wire 1 ; fifo_empty_d0 $end
$var wire 1 : fifo_empty_d1 $end
$var wire 1 9 fifo_pause_main $end
$var wire 1 8 idle_out_cond $end
$var reg 2 .# aeDF_i [1:0] $end
$var reg 2 /# aeMF_i [1:0] $end
$var reg 4 0# aeVC_i [3:0] $end
$var reg 2 1# afDF_i [1:0] $end
$var reg 2 2# afMF_i [1:0] $end
$var reg 4 3# afVC_i [3:0] $end
$var reg 1 @ clk $end
$var reg 6 4# data_in [5:0] $end
$var reg 1 7 init $end
$var reg 1 6 pop_d0 $end
$var reg 1 5 pop_d1 $end
$var reg 1 4 push_main $end
$var reg 1 3 reset_L $end
$upscope $end
$upscope $end
$enddefinitions $end
#0
$dumpvars
b101100 4#
b1110 3#
b11 2#
b11 1#
b10 0#
b1 /#
b1 .#
b0 -#
bx ,#
bx +#
bx *#
bx )#
bx (#
b0 '#
bx &#
bx %#
0$#
0##
bx "#
0!#
0~"
bx }"
b0 |"
bx {"
bx z"
bx y"
bx x"
bx w"
b0 v"
bx u"
bx t"
0s"
0r"
bx q"
0p"
0o"
bx n"
b0 m"
bx l"
bx k"
b0 j"
b0 i"
bx h"
bx g"
bx f"
bx e"
b101100 d"
bx c"
bx b"
bx a"
bx `"
0_"
0^"
bx ]"
0\"
0["
bx Z"
b101100 Y"
bx X"
bx W"
b1 V"
bx U"
b0 T"
bx S"
bx R"
bx Q"
bx P"
bx O"
bx N"
bx M"
b1 L"
b1 K"
b10 J"
b11 I"
b11 H"
b1110 G"
b0 F"
b0 E"
xD"
b0 C"
b0 B"
bx A"
x@"
bx ?"
bx >"
bx ="
bx <"
bx ;"
bx :"
bx 9"
bx 8"
bx 7"
06"
05"
bx 4"
bx 3"
02"
01"
bx 0"
bx /"
bx ."
bx -"
bx ,"
bx +"
bx *"
bx )"
bx ("
bx '"
0&"
0%"
bx $"
bx #"
0""
0!"
bx ~
bx }
bx |
bx {
b0 z
b0 y
b1 x
bx w
b1 v
bx u
b10 t
bx s
b11 r
bx q
b11 p
bx o
b1110 n
bx m
bx l
bx k
bx j
bx i
b101100 h
bx g
bx f
bx e
bx d
b0 c
b0 b
b0 a
1`
1_
1^
0]
0\
0[
0Z
0Y
0X
0W
0V
0U
0T
0S
0R
0Q
0P
0O
xN
xM
0L
0K
0J
zI
zH
0G
b1 F
b1 E
b10 D
b11 C
b11 B
b1110 A
0@
b101100 ?
bx >
bx =
b0 <
1;
1:
09
08
07
06
05
04
03
z2
z1
x0
z/
z.
x-
z,
z+
x*
z)
z(
z'
z&
x%
z$
z#
z"
z!
$end
#2000
b10 V"
0@"
0M
1N
b0 k
b0 ."
b0 ;"
b0 ?"
b0 l
b0 |
b0 +"
b0 >"
1;
b11111 y
b11111 E"
1:
1`
1_
1^
b0 S"
b10 w
b10 ~
b10 0"
b10 M"
b10 q
b10 }
b10 /"
b10 P"
b11 s
b11 O"
b11 k"
b11 z"
b1010 m
b1010 R"
b1010 l"
b1010 {"
b10 u
b10 N"
b10 W"
b10 o
b10 Q"
b10 X"
b1 U"
b0 `"
b0 b"
b0 a"
b0 c"
b0 ]"
b0 t"
b0 w"
b0 u"
b0 x"
b0 q"
b0 %#
b0 (#
b0 &#
b0 )#
b0 "#
b0 j
b0 ="
b0 h"
b0 '"
b0 )"
b0 ("
b0 *"
b0 >
b0 e
b0 $"
b0 +#
b0 #"
b0 7"
b0 9"
b0 8"
b0 :"
b0 =
b0 d
b0 4"
b0 ,#
b0 3"
13
1@
#4000
0@
#6000
b10111 y
b10111 E"
1!"
0;
b0 {
b0 ,"
b100 V"
b1 #"
b1 ("
b1 *"
b10 U"
1@
#8000
0@
#10000
b10111 y
b10111 E"
1:
1_
1^
1`
18
b1000 V"
0!"
b1 w
b1 ~
b1 0"
b1 M"
b11 q
b11 }
b11 /"
b11 P"
b10 s
b10 O"
b10 k"
b10 z"
b1110 m
b1110 R"
b1110 l"
b1110 {"
b1 u
b1 N"
b1 W"
b11 o
b11 Q"
b11 X"
b100 U"
b10 #"
b10 ("
b10 *"
1@
#12000
0@
#14000
b10111 y
b10111 E"
1`
1X
1""
1G
b1000 V"
08
14
b101101 ?
b101101 h
b101101 Y"
b101101 d"
b101101 4#
b11 #"
b11 ("
b11 *"
b1000 U"
1@
#16000
0@
#18000
1^
b1000 <
b1000 a
b1000 T"
b1000 -#
b1000 S"
b10000 V"
0G
1K
b101101 b
b101101 C"
b101101 |"
b101101 '#
1D"
1J
1T
1Q
b1000 z
b1000 F"
b10110 y
b10110 E"
b101101 i
b101101 A"
b101101 Z"
b101101 e"
1["
0`
1]
1&"
1X
1""
b1 ]"
b1 a"
b1 c"
b100 #"
b0 ("
b0 *"
b101110 ?
b101110 h
b101110 Y"
b101110 d"
b101110 4#
1@
#20000
0@
#22000
b1000 z
b1000 F"
b10010 y
b10010 E"
b0 j"
1K
b101110 b
b101110 C"
b101110 |"
b101110 '#
1~"
0^
b101101 f
b101101 f"
b101101 }"
b101101 *#
b101110 i
b101110 A"
b101110 Z"
b101110 e"
b10000 V"
b1000 <
b1000 a
b1000 T"
b1000 -#
b101111 ?
b101111 h
b101111 Y"
b101111 d"
b101111 4#
b1 "#
b1 &#
b1 )#
b1 `"
b1 b"
b10 a"
b10 c"
b10000 U"
1@
#24000
0@
#26000
1K
b101111 b
b101111 C"
b101111 |"
b101111 '#
b101111 i
b101111 A"
b101111 Z"
b101111 e"
1~"
b10 `"
b10 b"
b11 a"
b11 c"
b10 "#
b10 &#
b10 )#
b110000 ?
b110000 h
b110000 Y"
b110000 d"
b110000 4#
1@
#28000
0@
#30000
1K
b110000 b
b110000 C"
b110000 |"
b110000 '#
1["
0~"
b110000 i
b110000 A"
b110000 Z"
b110000 e"
04
b1100 ?
b1100 h
b1100 Y"
b1100 d"
b1100 4#
b11 "#
b11 &#
b11 )#
b11 `"
b11 b"
b0 a"
b0 c"
1@
#32000
0@
#34000
b10000 V"
b1000 <
b1000 a
b1000 T"
b1000 -#
b1000 z
b1000 F"
b10011 y
b10011 E"
0J
0T
0Q
0K
b0 b
b0 C"
b0 |"
b0 '#
0[
1`
0["
b101101 i
b101101 A"
b101101 Z"
b101101 e"
b0 ]"
b0 `"
b0 b"
b100 "#
b100 &#
b100 )#
b10 ?
b10 h
b10 Y"
b10 d"
b10 4#
1@
#36000
0@
#38000
b10000 V"
b1000 <
b1000 a
b1000 T"
b1000 -#
b1000 z
b1000 F"
b10011 y
b10011 E"
1`
14
b11 ?
b11 h
b11 Y"
b11 d"
b11 4#
1@
#40000
0@
#42000
1_
b10000 V"
b1000 <
b1000 a
b1000 T"
b1000 -#
1L
b11 c
b11 B"
b11 m"
b11 v"
0D"
b1000 z
b1000 F"
b10010 y
b10010 E"
1J
1T
1Q
b11 i
b11 A"
b11 Z"
b11 e"
1["
0`
b1 ]"
b1 a"
b1 c"
b100 ?
b100 h
b100 Y"
b100 d"
b100 4#
1@
#44000
0@
#46000
b10000 V"
b1000 <
b1000 a
b1000 T"
b1000 -#
b1000 z
b1000 F"
b10000 y
b10000 E"
b0 j"
1L
b100 c
b100 B"
b100 m"
b100 v"
1o"
0_
b11 g
b11 g"
b11 n"
b11 y"
b100 i
b100 A"
b100 Z"
b100 e"
b101 ?
b101 h
b101 Y"
b101 d"
b101 4#
b1 q"
b1 u"
b1 x"
b1 `"
b1 b"
b10 a"
b10 c"
1@
#48000
0@
#50000
1L
b101 c
b101 B"
b101 m"
b101 v"
b101 i
b101 A"
b101 Z"
b101 e"
1o"
b10 `"
b10 b"
b11 a"
b11 c"
b10 q"
b10 u"
b10 x"
b110 ?
b110 h
b110 Y"
b110 d"
b110 4#
1@
#52000
0@
#54000
1L
b110 c
b110 B"
b110 m"
b110 v"
0o"
b110 i
b110 A"
b110 Z"
b110 e"
b111 ?
b111 h
b111 Y"
b111 d"
b111 4#
b11 q"
b11 u"
b11 x"
b11 `"
b11 b"
b0 a"
b0 c"
1@
#56000
0@
#58000
1L
b111 c
b111 B"
b111 m"
b111 v"
b111 i
b111 A"
b111 Z"
b111 e"
b0 `"
b0 b"
b1 a"
b1 c"
b100 q"
b100 u"
b100 x"
b1000 ?
b1000 h
b1000 Y"
b1000 d"
b1000 4#
1@
#60000
0@
#62000
1L
b1000 c
b1000 B"
b1000 m"
b1000 v"
b1000 i
b1000 A"
b1000 Z"
b1000 e"
b1001 ?
b1001 h
b1001 Y"
b1001 d"
b1001 4#
b101 q"
b101 u"
b101 x"
b1 `"
b1 b"
b10 a"
b10 c"
1@
#64000
0@
#66000
1L
b1001 c
b1001 B"
b1001 m"
b1001 v"
b1001 i
b1001 A"
b1001 Z"
b1001 e"
b10 `"
b10 b"
b11 a"
b11 c"
b110 q"
b110 u"
b110 x"
b1010 ?
b1010 h
b1010 Y"
b1010 d"
b1010 4#
1@
#68000
0@
#70000
1L
b1010 c
b1010 B"
b1010 m"
b1010 v"
b1010 i
b1010 A"
b1010 Z"
b1010 e"
b1011 ?
b1011 h
b1011 Y"
b1011 d"
b1011 4#
b111 q"
b111 u"
b111 x"
b11 `"
b11 b"
b0 a"
b0 c"
1@
#72000
0@
#74000
1L
b1011 c
b1011 B"
b1011 m"
b1011 v"
b1011 i
b1011 A"
b1011 Z"
b1011 e"
b0 `"
b0 b"
b1 a"
b1 c"
b1000 q"
b1000 u"
b1000 x"
b1100 ?
b1100 h
b1100 Y"
b1100 d"
b1100 4#
1@
#76000
0@
#78000
1L
b1100 c
b1100 B"
b1100 m"
b1100 v"
b1100 i
b1100 A"
b1100 Z"
b1100 e"
b1101 ?
b1101 h
b1101 Y"
b1101 d"
b1101 4#
b1001 q"
b1001 u"
b1001 x"
b1 `"
b1 b"
b10 a"
b10 c"
1@
#80000
0@
#82000
1L
b1101 c
b1101 B"
b1101 m"
b1101 v"
b1101 i
b1101 A"
b1101 Z"
b1101 e"
b10 `"
b10 b"
b11 a"
b11 c"
b1010 q"
b1010 u"
b1010 x"
b1110 ?
b1110 h
b1110 Y"
b1110 d"
b1110 4#
1@
#84000
0@
#86000
1L
b1110 c
b1110 B"
b1110 m"
b1110 v"
b1110 i
b1110 A"
b1110 Z"
b1110 e"
b1111 ?
b1111 h
b1111 Y"
b1111 d"
b1111 4#
b1011 q"
b1011 u"
b1011 x"
b11 `"
b11 b"
b0 a"
b0 c"
1@
#88000
0@
#90000
1L
b1111 c
b1111 B"
b1111 m"
b1111 v"
b1111 i
b1111 A"
b1111 Z"
b1111 e"
b0 `"
b0 b"
b1 a"
b1 c"
b1100 q"
b1100 u"
b1100 x"
b10000 ?
b10000 h
b10000 Y"
b10000 d"
b10000 4#
1@
#92000
0@
#94000
1L
b10000 c
b10000 B"
b10000 m"
b10000 v"
b10000 i
b10000 A"
b10000 Z"
b10000 e"
b10001 ?
b10001 h
b10001 Y"
b10001 d"
b10001 4#
b1101 q"
b1101 u"
b1101 x"
b1 `"
b1 b"
b10 a"
b10 c"
1@
#96000
0@
#98000
1["
0L
b0 c
b0 B"
b0 m"
b0 v"
0J
0T
0Q
b10001 i
b10001 A"
b10001 Z"
b10001 e"
1V
1p"
b10 `"
b10 b"
b11 a"
b11 c"
b1110 q"
b1110 u"
b1110 x"
b10010 ?
b10010 h
b10010 Y"
b10010 d"
b10010 4#
1@
